<?xml version="1.0" encoding="utf-8"?>
<session version="1.0">
<refactoring comment="Rename type 'netcins.util.HashAlgorithmImpl' to 'HashAlgorithm'&#10;- Original element: 'netcins.util.HashAlgorithmImpl'&#10;- Renamed element: 'netcins.util.HashAlgorithm'&#10;- Update references to refactored element&#10;- Update textual occurrences in comments and strings" description="Rename type 'HashAlgorithmImpl'" flags="589830" id="org.eclipse.jdt.ui.rename.type" input="/src&lt;netcins.util{HashAlgorithmImpl.java[HashAlgorithmImpl" matchStrategy="1" name="HashAlgorithm" qualified="false" references="true" similarDeclarations="false" stamp="1187022369171" textual="true" version="1.0"/>
</session>
