<?xml version="1.0" encoding="utf-8"?>
<session version="1.0">
<refactoring comment="Change method 'public int netcins.dbms.distributed.histograms.DistributedHistogram.getBucketForItem(BasicItem item)' to 'public int getBucketForItem(DHSPastryAppl sourceNode, BasicItem item)'&#10;- Added parameters:&#10;     DHSPastryAppl sourceNode" default1="null" delegate="false" deprecate="true" description="Change method 'getBucketForItem'" flags="589830" id="org.eclipse.jdt.ui.change.method.signature" input="/src&lt;netcins.dbms.distributed.histograms{DistributedHistogram.java[DistributedHistogram~getBucketForItem~QBasicItem;" name="getBucketForItem" parameter1="Object newParam -1 DHSPastryAppl sourceNode false" parameter2="BasicItem item 0 BasicItem item false" stamp="1164243243250" version="1.0"/>
<refactoring comment="Rename method 'netcins.dbms.distributed.histograms.DistributedHistogram.getItemsInRange(...)' to 'getNumItemsInRange'&#10;- Original element: 'netcins.dbms.distributed.histograms.DistributedHistogram.getItemsInRange(...)'&#10;- Renamed element: 'netcins.dbms.distributed.histograms.DistributedHistogram.getNumItemsInRange(...)'&#10;- Update references to refactored element" delegate="false" deprecate="true" description="Rename method 'getItemsInRange'" flags="589830" id="org.eclipse.jdt.ui.rename.method" input="/src&lt;netcins.dbms.distributed.histograms{DistributedHistogram.java[DistributedHistogram~getItemsInRange~QDHSPastryAppl;~QBasicItem;~QBasicItem;" name="getNumItemsInRange" references="true" stamp="1164253283669" version="1.0"/>
<refactoring comment="Rename method 'netcins.dbms.distributed.histograms.DistributedHistogram.getDistinctItemsInRange(...)' to 'getNumDistinctItemsInRange'&#10;- Original element: 'netcins.dbms.distributed.histograms.DistributedHistogram.getDistinctItemsInRange(...)'&#10;- Renamed element: 'netcins.dbms.distributed.histograms.DistributedHistogram.getNumDistinctItemsInRange(...)'&#10;- Update references to refactored element" delegate="false" deprecate="true" description="Rename method 'getDistinctItemsInRange'" flags="589830" id="org.eclipse.jdt.ui.rename.method" input="/src&lt;netcins.dbms.distributed.histograms{DistributedHistogram.java[DistributedHistogram~getDistinctItemsInRange~QDHSPastryAppl;~QBasicItem;~QBasicItem;" name="getNumDistinctItemsInRange" references="true" stamp="1164253320288" version="1.0"/>
<refactoring comment="Convert member type 'netcins.dbms.centralized.histograms.CompressedHistogramImpl.ItemFreq' in 'netcins.dbms.centralized.histograms.CompressedHistogramImpl' to top level type&#10;- Original element: 'netcins.dbms.centralized.histograms.CompressedHistogramImpl.ItemFreq'" description="Convert member type 'ItemFreq' to top level" field="false" final="true" flags="786438" id="org.eclipse.jdt.ui.move.inner" input="/src&lt;netcins.dbms.centralized.histograms{CompressedHistogramImpl.java[CompressedHistogramImpl[ItemFreq" mandatory="false" possible="true" stamp="1164335636446" version="1.0"/>
<refactoring comment="Rename local variable 'curItem' in 'netcins.dbms.centralized.histograms.EquiDepthHistogramImpl.initBuckets()' to 'nextItem'&#10;- Original element: 'netcins.dbms.centralized.histograms.EquiDepthHistogramImpl.initBuckets().curItem'&#10;- Renamed element: 'netcins.dbms.centralized.histograms.EquiDepthHistogramImpl.initBuckets().nextItem'&#10;- Update references to refactored element" description="Rename local variable 'curItem'" id="org.eclipse.jdt.ui.rename.local.variable" input="/src&lt;netcins.dbms.centralized.histograms{EquiDepthHistogramImpl.java" name="nextItem" references="true" selection="3726 7" stamp="1164338734690" version="1.0"/>
<refactoring comment="Rename field 'internalHisto' in 'netcins.dbms.distributed.histograms.DHSInferredHistogramImpl' to 'dhsEWHisto'&#10;- Original element: 'netcins.dbms.distributed.histograms.DHSInferredHistogramImpl.internalHisto'&#10;- Renamed element: 'netcins.dbms.distributed.histograms.DHSInferredHistogramImpl.dhsEWHisto'&#10;- Update references to refactored element&#10;- Update textual occurrences in comments and strings" delegate="false" deprecate="true" description="Rename field 'internalHisto'" flags="589830" getter="false" id="org.eclipse.jdt.ui.rename.field" input="/src&lt;netcins.dbms.distributed.histograms{DHSInferredHistogramImpl.java[DHSInferredHistogramImpl^internalHisto" name="dhsEWHisto" references="true" setter="false" stamp="1164344306333" textual="true" version="1.0"/>
</session>
