<?xml version="1.0" encoding="utf-8"?>
<session version="1.0">
<refactoring comment="Rename field 'byteCount' in 'netcins.dbms.BasicItem' to 'valueByteCount'&#10;- Original element: 'netcins.dbms.BasicItem.byteCount'&#10;- Renamed element: 'netcins.dbms.BasicItem.valueByteCount'&#10;- Update references to refactored element&#10;- Update textual occurrences in comments and strings" delegate="false" deprecate="true" description="Rename field 'byteCount'" flags="589826" getter="false" id="org.eclipse.jdt.ui.rename.field" input="/src&lt;netcins.dbms{BasicItem.java[BasicItem^byteCount" name="valueByteCount" references="true" setter="false" stamp="1163665700175" textual="true" version="1.0"/>
<refactoring comment="Rename method 'netcins.dbms.centralized.histograms.Histogram.getItemsInRange(...)' to 'getNumItemsInRange'&#10;- Original element: 'netcins.dbms.centralized.histograms.Histogram.getItemsInRange(...)'&#10;- Renamed element: 'netcins.dbms.centralized.histograms.Histogram.getNumItemsInRange(...)'&#10;- Update references to refactored element" delegate="false" deprecate="true" description="Rename method 'getItemsInRange'" flags="589830" id="org.eclipse.jdt.ui.rename.method" input="/src&lt;netcins.dbms.centralized.histograms{Histogram.java[Histogram~getItemsInRange~QBasicItem;~QBasicItem;" name="getNumItemsInRange" references="true" stamp="1163670013143" version="1.0"/>
<refactoring comment="Rename method 'netcins.dbms.centralized.histograms.Histogram.getItemsInBucket(...)' to 'getNumItemsInBucket'&#10;- Original element: 'netcins.dbms.centralized.histograms.Histogram.getItemsInBucket(...)'&#10;- Renamed element: 'netcins.dbms.centralized.histograms.Histogram.getNumItemsInBucket(...)'&#10;- Update references to refactored element" delegate="false" deprecate="true" description="Rename method 'getItemsInBucket'" flags="589830" id="org.eclipse.jdt.ui.rename.method" input="/src&lt;netcins.dbms.centralized.histograms{Histogram.java[Histogram~getItemsInBucket~I" name="getNumItemsInBucket" references="true" stamp="1163670025018" version="1.0"/>
<refactoring comment="Rename local variable 'normError' in 'netcins.dbms.distributed.histograms.testing.DHSEquiWidthHistogramTest.query(...)' to 'error'&#10;- Original element: 'netcins.dbms.distributed.histograms.testing.DHSEquiWidthHistogramTest.query(BasicItem, BasicItem).normError'&#10;- Renamed element: 'netcins.dbms.distributed.histograms.testing.DHSEquiWidthHistogramTest.query(BasicItem, BasicItem).error'&#10;- Update references to refactored element" description="Rename local variable 'normError'" id="org.eclipse.jdt.ui.rename.local.variable" input="/src&lt;netcins.dbms.distributed.histograms.testing{DHSEquiWidthHistogramTest.java" name="error" references="true" selection="8815 9" stamp="1163684695026" version="1.0"/>
<refactoring comment="Rename type 'netcins.TreeTest' to 'ZipfGenerator'&#10;- Original element: 'netcins.TreeTest'&#10;- Renamed element: 'netcins.ZipfGenerator'&#10;- Update references to refactored element&#10;- Update textual occurrences in comments and strings" description="Rename type 'TreeTest'" flags="589830" id="org.eclipse.jdt.ui.rename.type" input="/src&lt;netcins{TreeTest.java[TreeTest" matchStrategy="1" name="ZipfGenerator" qualified="false" references="true" similarDeclarations="false" stamp="1163747986417" textual="true" version="1.0"/>
<refactoring comment="Rename method 'netcins.QuickMath.zipf(...)' to 'quickZipf'&#10;- Original element: 'netcins.QuickMath.zipf(...)'&#10;- Renamed element: 'netcins.QuickMath.quickZipf(...)'&#10;- Update references to refactored element" delegate="false" deprecate="true" description="Rename method 'zipf'" flags="589830" id="org.eclipse.jdt.ui.rename.method" input="/src&lt;netcins{QuickMath.java[QuickMath~zipf~D~J" name="quickZipf" references="true" stamp="1163748970906" version="1.0"/>
<refactoring comment="Change method 'public int[] netcins.dbms.centralized.sketches.Sketch.tryAddObject(ItemSerializable data)' to 'public Object tryAddObject(ItemSerializable data)'&#10;- New return type: 'Object'" delegate="false" deprecate="true" description="Change method 'tryAddObject'" flags="589830" id="org.eclipse.jdt.ui.change.method.signature" input="/src&lt;netcins.dbms.centralized.sketches{Sketch.java[Sketch~tryAddObject~QItemSerializable;" name="tryAddObject" parameter1="ItemSerializable data 0 ItemSerializable data false" return="Object" stamp="1163762487132" version="1.0"/>
<refactoring comment="Rename type 'netcins.p2p.dhs.DHS' to 'DHSImpl'&#10;- Original element: 'netcins.p2p.dhs.DHS'&#10;- Renamed element: 'netcins.p2p.dhs.DHSImpl'&#10;- Update references to refactored element&#10;- Update textual occurrences in comments and strings" description="Rename type 'DHS'" flags="589830" id="org.eclipse.jdt.ui.rename.type" input="/src&lt;netcins.p2p.dhs{DHS.java[DHS" matchStrategy="1" name="DHSImpl" qualified="false" references="true" similarDeclarations="false" stamp="1163763277747" textual="true" version="1.0"/>
<refactoring comment="Rename type 'netcins.p2p.dhs.DHSImpl' to 'DHS'&#10;- Original element: 'netcins.p2p.dhs.DHSImpl'&#10;- Renamed element: 'netcins.p2p.dhs.DHS'&#10;- Update references to refactored element&#10;- Update textual occurrences in comments and strings" description="Rename type 'DHSImpl'" flags="589830" id="org.eclipse.jdt.ui.rename.type" input="/src&lt;netcins.p2p.dhs{DHSImpl.java[DHSImpl" matchStrategy="1" name="DHS" qualified="false" references="true" similarDeclarations="false" stamp="1163763348754" textual="true" version="1.0"/>
<refactoring comment="Rename type 'netcins.dbms.centralized.sketches.UnknownSketchAlgorithmException' to 'UnsupportedSketchAlgorithmException'&#10;- Original element: 'netcins.dbms.centralized.sketches.UnknownSketchAlgorithmException'&#10;- Renamed element: 'netcins.dbms.centralized.sketches.UnsupportedSketchAlgorithmException'&#10;- Update references to refactored element&#10;- Update textual occurrences in comments and strings" description="Rename type 'UnknownSketchAlgorithmException'" flags="589830" id="org.eclipse.jdt.ui.rename.type" input="/src&lt;netcins.dbms.centralized.sketches{UnknownSketchAlgorithmException.java[UnknownSketchAlgorithmException" matchStrategy="1" name="UnsupportedSketchAlgorithmException" qualified="false" references="true" similarDeclarations="false" stamp="1163766515629" textual="true" version="1.0"/>
<refactoring comment="Rename field 'centralizedHashSketch' in 'netcins.p2p.dhs.testing.DHSAMSSketchTest' to 'centralizedAMSSketch'&#10;- Original element: 'netcins.p2p.dhs.testing.DHSAMSSketchTest.centralizedHashSketch'&#10;- Renamed element: 'netcins.p2p.dhs.testing.DHSAMSSketchTest.centralizedAMSSketch'&#10;- Update references to refactored element&#10;- Update textual occurrences in comments and strings" delegate="false" deprecate="true" description="Rename field 'centralizedHashSketch'" flags="589826" getter="false" id="org.eclipse.jdt.ui.rename.field" input="/src&lt;netcins.p2p.dhs.testing{DHSAMSSketchTest.java[DHSAMSSketchTest^centralizedHashSketch" name="centralizedAMSSketch" references="true" setter="false" stamp="1163766768821" textual="true" version="1.0"/>
<refactoring comment="Rename method 'netcins.p2p.dhs.testing.DHSAMSSketchTest.initDHSImpl(...)' to 'initSketchImpls'&#10;- Original element: 'netcins.p2p.dhs.testing.DHSAMSSketchTest.initDHSImpl(...)'&#10;- Renamed element: 'netcins.p2p.dhs.testing.DHSAMSSketchTest.initSketchImpls(...)'&#10;- Update references to refactored element" delegate="false" deprecate="true" description="Rename method 'initDHSImpl'" flags="589830" id="org.eclipse.jdt.ui.rename.method" input="/src&lt;netcins.p2p.dhs.testing{DHSAMSSketchTest.java[DHSAMSSketchTest~initDHSImpl~QDHSSketchAlgorithms;~I~I~I" name="initSketchImpls" references="true" stamp="1163766997225" version="1.0"/>
<refactoring comment="Change method 'protected static boolean netcins.p2p.dhs.DHS.allMetricVecsSetToMoreThanForBit(BigInteger[][] vecsValue, int threshold, int bit)' to 'protected static boolean allMetricVecsSetToMoreThanForBit(BigInteger[][] vecsValue, int threshold, int bit, Vector&lt;String&gt; queryMetrics)'&#10;- Added parameters:&#10;     Vector&lt;String&gt; queryMetrics" default4="null" delegate="false" deprecate="true" description="Change method 'allMetricVecsSetToMoreThanForBit'" flags="589830" id="org.eclipse.jdt.ui.change.method.signature" input="/src&lt;netcins.p2p.dhs{DHS.java[DHS~allMetricVecsSetToMoreThanForBit~\[\[QBigInteger;~I~I" name="allMetricVecsSetToMoreThanForBit" parameter1="BigInteger[][] vecsValue 0 BigInteger[][] vecsValue false" parameter2="int threshold 1 int threshold false" parameter3="int bit 2 int bit false" parameter4="Object newParam -1 Vector&lt;String&gt; queryMetrics false" stamp="1163769897208" version="1.0"/>
<refactoring comment="Change method 'protected static boolean netcins.p2p.dhs.DHS.allMetricVecsSetToForBit(BigInteger[][] vecsValue, int value, int bit)' to 'protected static boolean allMetricVecsSetToForBit(BigInteger[][] vecsValue, int value, int bit, Vector&lt;String&gt; queryMetrics)'&#10;- Added parameters:&#10;     Vector&lt;String&gt; queryMetrics" default4="metrics" delegate="false" deprecate="true" description="Change method 'allMetricVecsSetToForBit'" flags="589830" id="org.eclipse.jdt.ui.change.method.signature" input="/src&lt;netcins.p2p.dhs{DHS.java[DHS~allMetricVecsSetToForBit~\[\[QBigInteger;~I~I" name="allMetricVecsSetToForBit" parameter1="BigInteger[][] vecsValue 0 BigInteger[][] vecsValue false" parameter2="int value 1 int value false" parameter3="int bit 2 int bit false" parameter4="Object newParam -1 Vector&lt;String&gt; queryMetrics false" stamp="1163769988153" version="1.0"/>
<refactoring comment="Change method 'protected boolean netcins.p2p.dhs.DHS.allMetricVecsSetForBit(BigInteger[][] vecsValue, int bit)' to 'protected boolean allMetricVecsSetForBit(BigInteger[][] vecsValue, int bit, Vector&lt;String&gt; queryMetrics)'&#10;- Added parameters:&#10;     Vector&lt;String&gt; queryMetrics" default3="metrics" delegate="false" deprecate="true" description="Change method 'allMetricVecsSetForBit'" flags="589830" id="org.eclipse.jdt.ui.change.method.signature" input="/src&lt;netcins.p2p.dhs{DHS.java[DHS~allMetricVecsSetForBit~\[\[QBigInteger;~I" name="allMetricVecsSetForBit" parameter1="BigInteger[][] vecsValue 0 BigInteger[][] vecsValue false" parameter2="int bit 1 int bit false" parameter3="Object newParam -1 Vector&lt;String&gt; queryMetrics false" stamp="1163770036872" version="1.0"/>
<refactoring comment="Change method 'protected static boolean netcins.p2p.dhs.DHS.noMetricVecsSetForBit(BigInteger[][] vecsValue, int bit)' to 'protected static boolean noMetricVecsSetForBit(BigInteger[][] vecsValue, int bit, Vector&lt;String&gt; queryMetrics)'&#10;- Added parameters:&#10;     Vector&lt;String&gt; queryMetrics" default3="metrics" delegate="false" deprecate="true" description="Change method 'noMetricVecsSetForBit'" flags="589830" id="org.eclipse.jdt.ui.change.method.signature" input="/src&lt;netcins.p2p.dhs{DHS.java[DHS~noMetricVecsSetForBit~\[\[QBigInteger;~I" name="noMetricVecsSetForBit" parameter1="BigInteger[][] vecsValue 0 BigInteger[][] vecsValue false" parameter2="int bit 1 int bit false" parameter3="Object newParam -1 Vector&lt;String&gt; queryMetrics false" stamp="1163770091595" version="1.0"/>
<refactoring comment="Rename field 'metrics' in 'netcins.p2p.dhs.DHSAMSSketchImpl' to 'amsMetrics'&#10;- Original element: 'netcins.p2p.dhs.DHSAMSSketchImpl.metrics'&#10;- Renamed element: 'netcins.p2p.dhs.DHSAMSSketchImpl.amsMetrics'&#10;- Update references to refactored element&#10;- Update textual occurrences in comments and strings" delegate="false" deprecate="true" description="Rename field 'metrics'" flags="589826" getter="false" id="org.eclipse.jdt.ui.rename.field" input="/src&lt;netcins.p2p.dhs{DHSAMSSketchImpl.java[DHSAMSSketchImpl^metrics" name="amsMetrics" references="true" setter="false" stamp="1163775484632" textual="true" version="1.0"/>
<refactoring comment="Rename local variable 'step' in 'netcins.dbms.centralized.histograms.EquiDepthHistogramImpl.initBuckets()' to 'itemsPerBucket'&#10;- Original element: 'netcins.dbms.centralized.histograms.EquiDepthHistogramImpl.initBuckets().step'&#10;- Renamed element: 'netcins.dbms.centralized.histograms.EquiDepthHistogramImpl.initBuckets().itemsPerBucket'&#10;- Update references to refactored element" description="Rename local variable 'step'" id="org.eclipse.jdt.ui.rename.local.variable" input="/src&lt;netcins.dbms.centralized.histograms{EquiDepthHistogramImpl.java" name="itemsPerBucket" references="true" selection="1072 4" stamp="1163845637450" version="1.0"/>
<refactoring comment="Rename type 'netcins.p2p.dhs.DHS' to 'DHSImpl'&#10;- Original element: 'netcins.p2p.dhs.DHS'&#10;- Renamed element: 'netcins.p2p.dhs.DHSImpl'&#10;- Update references to refactored element&#10;- Update textual occurrences in comments and strings" description="Rename type 'DHS'" flags="589830" id="org.eclipse.jdt.ui.rename.type" input="/src&lt;netcins.p2p.dhs{DHS.java[DHS" matchStrategy="1" name="DHSImpl" qualified="false" references="true" similarDeclarations="false" stamp="1163861174775" textual="true" version="1.0"/>
<refactoring comment="Rename field 'isDataInited' in 'netcins.dbms.centralized.histograms.MaxDiffHistogramImpl' to 'areBucketsInited'&#10;- Original element: 'netcins.dbms.centralized.histograms.MaxDiffHistogramImpl.isDataInited'&#10;- Renamed element: 'netcins.dbms.centralized.histograms.MaxDiffHistogramImpl.areBucketsInited'&#10;- Update references to refactored element&#10;- Update textual occurrences in comments and strings" delegate="false" deprecate="true" description="Rename field 'isDataInited'" flags="589826" getter="false" id="org.eclipse.jdt.ui.rename.field" input="/src&lt;netcins.dbms.centralized.histograms{MaxDiffHistogramImpl.java[MaxDiffHistogramImpl^isDataInited" name="areBucketsInited" references="true" setter="false" stamp="1163933387601" textual="true" version="1.0"/>
</session>
