<?xml version="1.0" encoding="utf-8"?>
<session version="1.0">
<refactoring comment="Rename type 'netcins.dbms.distributed.aggregates.testing.DHSAggregatesTest' to 'DHSCountTest'&#10;- Original element: 'netcins.dbms.distributed.aggregates.testing.DHSAggregatesTest'&#10;- Renamed element: 'netcins.dbms.distributed.aggregates.testing.DHSCountTest'&#10;- Update references to refactored element&#10;- Update textual occurrences in comments and strings" description="Rename type 'DHSAggregatesTest'" flags="589830" id="org.eclipse.jdt.ui.rename.type" input="/src&lt;netcins.dbms.distributed.aggregates.testing{DHSAggregatesTest.java[DHSAggregatesTest" matchStrategy="1" name="DHSCountTest" qualified="false" references="true" similarDeclarations="false" stamp="1195956185906" textual="true" version="1.0"/>
</session>
